%YAML 1.1
%TAG !u! tag:unity3d.com,2011:
--- !u!21 &2100000
Material:
  serializedVersion: 6
  m_ObjectHideFlags: 0
  m_CorrespondingSourceObject: {fileID: 0}
  m_PrefabInstance: {fileID: 0}
  m_PrefabAsset: {fileID: 0}
  m_Name: CrystalWithGrabPass
  m_Shader: {fileID: 4800000, guid: 562383aa6e45bb9429880575371fdd31, type: 3}
  m_ShaderKeywords: 
  m_LightmapFlags: 4
  m_EnableInstancingVariants: 0
  m_DoubleSidedGI: 0
  m_CustomRenderQueue: -1
  stringTagMap: {}
  disabledShaderPasses: []
  m_SavedProperties:
    serializedVersion: 3
    m_TexEnvs: []
    m_Floats:
    - _RimPower: 7
    - _RimWidth: 1
    m_Colors:
    - _OuterRimColor: {r: 0.5471698, g: 0.13679245, b: 0.20905903, a: 1}
    - _RimColor: {r: 0.7924528, g: 0.31772873, b: 0.48765472, a: 1}
  m_BuildTextureStacks: []
